{
  "$schema": "https://developer.microsoft.com/json-schemas/spfx-build/package-solution.schema.json",
  "solution": {
    "name": "documentcardexample-webpart-client-side-solution",
    "id": "c82093e2-6cf7-4f8d-8e3f-4f586c0b42bd",
    "version": "1.0.0.0",
    "includeClientSideAssets": true,
    "isDomainIsolated": false
  },
  "paths": {
    "zippedPackage": "solution/documentcardexample-webpart.sppkg"
  }
}
